<?xml version="1.0" standalone="no"?>
<!DOCTYPE svg PUBLIC "-//W3C//DTD SVG 1.1//EN" "http://www.w3.org/Graphics/SVG/1.1/DTD/svg11.dtd" >
<svg xmlns="http://www.w3.org/2000/svg">
<metadata>Generated by IcoMoon</metadata>
<defs>
<font id="lg" horiz-adv-x="1024">
<font-face units-per-em="1024" ascent="960" descent="-64" />
<missing-glyph horiz-adv-x="1024" />
<glyph unicode="&#x20;" horiz-adv-x="512" d="" />
<glyph unicode="&#xe900;" glyph-name="logo2" horiz-adv-x="4158" d="M726.822 600.946l-33.117 29.631c-97.607 88.892-177.784 194.342-238.788 311.122-8.715 17.43-30.502 24.402-47.932 14.815l-18.301-10.458c-47.060-26.145-69.719-81.049-55.775-132.466l7.843-30.502c12.201-44.446 29.631-88.020 52.289-128.98l29.631-54.032h-345.11c-43.574 0-78.434-34.86-78.434-78.434v-8.715c0-43.574 34.86-78.434 78.434-78.434h28.759c-42.703 0-76.691-34.86-76.691-76.691v-12.201c0-42.703 34.86-76.691 76.691-76.691h22.659c-41.831 0-75.82-33.988-75.82-75.82v-14.815c0-41.831 33.988-75.82 75.82-75.82h46.189c-40.089 0-72.334-32.245-72.334-72.334v-20.916c0-40.089 32.245-72.334 72.334-72.334h551.653c35.731 0 67.976 14.815 91.506 37.474 23.53 23.53 37.474 55.775 37.474 91.506v264.061c0 105.45-47.932 204.8-128.98 271.033zM652.746 222.72l-254.475-126.366c-34.86-17.43-74.948 7.843-74.948 46.189v252.732c0 38.346 40.96 63.619 74.948 46.189l254.475-126.366c37.474-19.173 37.474-74.077 0-92.378zM1573.91 600.946h-105.45c-15.687 0-27.016-6.972-33.117-20.044l-161.226-286.72-160.354 286.72c-6.972 13.944-18.301 20.044-33.117 20.044h-104.579c-6.972 0-12.201-2.614-17.43-6.972-4.357-4.357-6.972-10.458-6.972-17.43v-616.143c0-6.972 2.614-12.201 6.972-16.558s10.458-6.1 17.43-6.1h117.651c6.972 0 12.201 1.743 17.43 6.1 4.357 4.357 6.972 9.586 6.972 16.558v351.21l99.35-183.884c9.586-13.944 20.044-21.787 32.245-21.787h50.546c13.944 0 24.402 6.972 32.245 21.787l100.221 183.884v-351.21c0-6.1 2.614-11.329 6.972-16.558 4.357-4.357 10.458-6.972 16.558-6.972h118.523c6.972 0 12.201 1.743 17.43 6.1 4.357 4.357 6.972 9.586 6.972 16.558v617.014c0 6.972-2.614 12.201-6.972 17.43-5.229 4.357-11.329 6.972-18.301 6.972zM2247.571 580.902c0 5.229-1.743 9.586-6.1 13.072-4.357 4.357-8.715 6.1-13.072 6.1h-122.88c-8.715 0-15.687-1.743-21.787-6.1-5.229-4.357-9.586-8.715-12.201-13.944l-128.98-233.559-129.852 233.559c-2.614 5.229-6.1 9.586-12.201 13.944-5.229 4.357-13.072 6.1-21.787 6.1h-122.88c-5.229 0-9.586-1.743-13.072-6.1-4.357-4.357-6.1-8.715-6.1-13.072 0-3.486 0.871-6.972 2.614-10.458l215.258-400.014v-210.9c0-6.1 2.614-11.329 6.972-16.558 4.357-4.357 10.458-6.972 16.558-6.972h127.237c6.972 0 12.201 1.743 17.43 6.1 4.357 4.357 6.972 9.586 6.972 16.558v211.772l215.258 400.014c1.743 3.486 2.614 6.972 2.614 10.458zM2351.278 106.812h-122.88c-6.972 0-12.201-2.614-17.43-6.972-4.357-4.357-6.972-10.458-6.972-17.43v-122.88c0-6.972 2.614-12.201 6.972-16.558s10.458-6.1 17.43-6.1h122.88c6.972 0 12.201 2.614 16.558 6.972s6.1 10.458 6.1 16.558v122.88c0 6.972-1.743 12.201-6.1 17.43-4.357 4.357-10.458 6.1-16.558 6.1zM2857.614 600.946h-505.464c-6.972 0-12.201-2.614-17.43-6.972-4.357-4.357-6.972-10.458-6.972-17.43v-104.579c0-6.972 2.614-12.201 6.972-16.558s10.458-6.1 17.43-6.1h163.84v-488.906c0-6.972 2.614-12.201 6.972-16.558s10.458-6.1 17.43-6.1h128.98c6.972 0 12.201 1.743 17.43 6.1 4.357 4.357 6.972 9.586 6.972 16.558v488.906h163.84c6.972 0 12.201 1.743 17.43 6.1 4.357 4.357 6.972 9.586 6.972 16.558v104.579c0 6.972-2.614 12.201-6.972 17.43-4.357 4.357-10.458 6.972-17.43 6.972zM4089.028 546.043c-46.189 36.603-108.936 54.904-189.985 54.904h-263.19c-6.972 0-12.201-2.614-16.558-6.972s-6.1-10.458-6.1-17.43v-616.143c0-6.1 2.614-11.329 6.972-16.558 4.357-4.357 10.458-6.972 16.558-6.972h134.209c6.972 0 12.201 2.614 16.558 6.972s6.1 10.458 6.1 16.558v213.515h106.322c80.177 0 143.796 17.43 189.985 52.289s68.848 88.020 68.848 158.611c-0.871 70.591-23.53 124.623-69.719 161.226zM3954.819 326.427c-14.815-13.072-34.86-20.044-60.133-20.044h-104.579v160.354h104.579c27.888 0 48.803-7.843 61.876-22.659s20.044-34.86 20.044-58.39c0-26.145-6.972-45.317-21.787-59.261zM3228.868 600.946c-183.013 0-332.037-149.025-332.037-332.037s149.025-332.037 332.037-332.037 332.037 149.025 332.037 332.037-149.025 332.037-332.037 332.037zM3228.868 557.372c47.060 0 84.534-37.474 84.534-84.534s-37.474-84.534-84.534-84.534-84.534 37.474-84.534 84.534c0 46.189 37.474 84.534 84.534 84.534zM2949.991 331.656c0 46.189 37.474 84.534 84.534 84.534s84.534-37.474 84.534-84.534c0-47.060-37.474-84.534-84.534-84.534s-84.534 37.474-84.534 84.534zM3108.603 18.791c-47.060 0-84.534 37.474-84.534 84.534 0 46.189 37.474 84.534 84.534 84.534s84.534-38.346 84.534-84.534c0-47.060-37.474-84.534-84.534-84.534zM3228.868 230.563c-20.916 0-38.346 17.43-38.346 38.346s17.43 38.346 38.346 38.346c20.916 0 38.346-17.43 38.346-38.346s-17.43-38.346-38.346-38.346zM3349.134 18.791c-47.060 0-84.534 37.474-84.534 84.534 0 46.189 37.474 84.534 84.534 84.534s84.534-38.346 84.534-84.534c0-47.060-37.474-84.534-84.534-84.534zM3507.745 331.656c0-47.060-37.474-84.534-84.534-84.534s-84.534 37.474-84.534 84.534c0 46.189 37.474 84.534 84.534 84.534s84.534-37.474 84.534-84.534z" />
</font></defs></svg>